{
	"$schema": "http://json-schema.org/draft-07/schema",
	"$id": "http://example.com/createBooking.json",
	"type": "object",
	"title": "Create Booking",
	"additionalProperties": false,
	"required": ["seat_number", "user_name", "email", "contact"],
	"properties": {
		"seat_number": {
			"$id": "#/properties/seat_number",
			"type": "integer",
			"title": "The Seat Number Schema"
		},
		"user_name": {
			"$id": "#/properties/user_name",
			"type": "string",
			"title": "The User Name Schema"
		},
		"email": {
			"$id": "#/properties/email",
			"type": "string",
			"title": "The Email Schema",
			"format": "email"
		},
		"contact": {
			"$id": "#/properties/contact",
			"type": "string",
			"title": "The Contact Schema"
		}
	}
}
